FrankTurner
…
gigs_kneejerk <- gigs_kneejerk |> 
  separate_wider_delim(
    gig_text, delim = "–", names = c("date_text", "location_text"), too_many = "merge", cols_remove = FALSE) |>
  add_date_columns()

gigs <- bind_rows(gigs_main, gigs_mingle_harde, gigs_million_dead, gigs_kneejerk)

Date Summary Statistics

How many gigs per year?

gigs_main |> group_by(gig_year) |> summarise(n=n())

# A tibble: 22 × 2
   gig_year     n
      <dbl> <int>
 1     2004     1
 2     2005    28
 3     2006   172
 4     2007   182
 5     2008   178
 6     2009   210
 7     2010   206
 8     2011   185
 9     2012   158
10     2013   196
# ℹ 12 more rows
…
gigs_table_year_date <- gigs %>%
  group_by(gig_year, gig_day) %>%
  tally() %>%
  spread(gig_day, n, fill=0) |> relocate(Sun, .after=Sat)

gigs_table_year_date 

# A tibble: 28 × 8
# Groups:   gig_year [28]
   gig_year   Mon   Tue   Wed   Thu   Fri   Sat   Sun
      <dbl> <dbl> <dbl> <dbl> <dbl> <dbl> <dbl> <dbl>
 1     1998     0     0     0     0     1     0     0
 2     1999     3     1     2     2     3     3     3
 3     2000     2     0     0     1     1     4     1
 4     2001     0     1     0     2     0     1     3
 5     2002     2     3     4     8     2     4     4
 6     2003     4     6     9    10    17    17    11
 7     2004     8     8     5     8    11    17    11
 8     2005    11    12    12    16    20    16    14
 9     2006    19    24    22    25    23    29    30
10     2007    27    21    26    27    29    28    24
# ℹ 18 more rows
…
Cross Tabulation with Tidyverse

gigs_contingency <- gigs_main %>%
  group_by(gig_year, gig_month) %>%
  tally() %>%
  spread(gig_month, n, fill=0)

gigs_contingency

# A tibble: 22 × 13
# Groups:   gig_year [22]
   gig_year   Jan   Feb   Mar   Apr   May   Jun   Jul   Aug   Sep   Oct   Nov
      <dbl> <dbl> <dbl> <dbl> <dbl> <dbl> <dbl> <dbl> <dbl> <dbl> <dbl> <dbl>
 1     2004     0     0     0     0     0     0     0     0     1     0     0
 2     2005     1     0     0     2     0     1     0     0     2     5    11
 3     2006    12    17    11    24    21    17    21    10     5    17    14
 4     2007    20    23    16    18    21    11    10    16    19    10    12
 5     2008     4    12    12    25    19    19    12    13     9    23    14
 6     2009    10    21    20     7     3    31    22     8    18    29    24
 7     2010     6    23    24    18    18    13    14    22     9    26    22
 8     2011     1     8     4    16    29    22     9    16    17    26    20
 9     2012     5    24    19    14    12     6    12     6    22     1    19
10     2013    19    10    20    17    10    19    17    11    21    21    23
# ℹ 12 more rows
# ℹ 1 more variable: Dec <dbl>
…
What countries has Frank been to the most?

gigs_country_sum <- gigs_main |> group_by(location_part_1, gig_year) |> 
  summarise(n = n()) |> 
  rename(country = location_part_1) |> 
  arrange(gig_year, desc(n)) 

`summarise()` has grouped output by 'location_part_1'. You can override using
the `.groups` argument.

gigs_country_sum

# A tibble: 335 × 3
# Groups:   country [54]
   country          gig_year     n
   <chr>               <dbl> <int>
 1 UK                   2004     1
 2 UK                   2005    28
 3 UK                   2006   138
 4 France               2006    12
 5 Latvia               2006     7
 6 Northern Ireland     2006     4
 7 Russia               2006     4
 8 Belgium              2006     2
 9 Lithuania            2006     2
10 Estonia              2006     1
# ℹ 325 more rows

gigs_country_sum |> spread(gig_year, n, fill=0)

# A tibble: 54 × 23
# Groups:   country [54]
   country `2004` `2005` `2006` `2007` `2008` `2009` `2010` `2011` `2012` `2013`
   <chr>    <dbl>  <dbl>  <dbl>  <dbl>  <dbl>  <dbl>  <dbl>  <dbl>  <dbl>  <dbl>
 1 Austra…      0      0      0      0      0      0      8      5      9      8
 2 Austria      0      0      0      0      1      3      0      5      1      5
 3 Belgium      0      0      2      0      3      2      1      2      1      2
 4 Bulgar…      0      0      0      0      0      0      0      0      0      0
 5 Canada       0      0      0      0      0      9     20     11     10     12
 6 China        0      0      0      0      0      0      6      0      0      2
 7 Croatia      0      0      0      0      0      0      0      1      1      0
 8 Czech …      0      0      0      0      0      0      0      0      1      0
 9 Denmark      0      0      0      0      0      2      0      1      0      1
10 Estonia      0      0      1      0      0      0      0      0      0      0
# ℹ 44 more rows
# ℹ 12 more variables: `2014` <dbl>, `2015` <dbl>, `2016` <dbl>, `2017` <dbl>,
#   `2018` <dbl>, `2019` <dbl>, `2020` <dbl>, `2021` <dbl>, `2022` <dbl>,
#   `2023` <dbl>, `2024` <dbl>, `2025` <dbl>
…
Most popular cities/states?

gigs_main |> group_by(location_part_2) |> 
  summarise(n = n()) |> 
  arrange(desc(n))

# A tibble: 552 × 2
   location_part_2     n
   <chr>           <int>
 1 " London"         242
 2 " CA"             119
 3 " TX"              85
 4 " NY"              73
 5 " FL"              57
 6 " ON"              54
 7 " MA"              44
 8 " PA"              41
 9 " Manchester"      39
10 " IL"              37
# ℹ 542 more rows
…
